# 
##################################################################
### Terrain Categories
###
### Terrain types: plains, mountains, hills, desert, artic, forest, jungle, marsh, pti
### Types are used by the game to apply certain bonuses/maluses on movement/combat etc.
###
### Sound types: plains, forest, desert, sea, jungle, mountains

categories =  {
	pti = {
		type = pti
	}

	ocean = {
		color = { 255 255 255 }

		sound_type = sea
		is_water = yes

		movement_cost = 1.0
	}

	inland_ocean = {
		color = { 0 0 200 }

		sound_type = sea
		is_water = yes
		inland_sea = yes

		movement_cost = 1.0
		terrain_override = {
			1511 1530 1535 1536 1580
			1679 5310 5311 5315 5316 1442 1443 5309 5312 1666 5308 1441 5307 6202 5314 1382 5313
		}
	}	

	glacier = {
		color = { 235 235 235 }

		sound_type = desert

		defence = 1
		movement_cost = 1.25
		supply_limit = 2		
		local_development_cost = 0.5
		nation_designer_cost_multiplier = 0.75		
		
		terrain_override = {		
			2798 1770 2800 2801 1804 2802 2516 1230 1234 1228 1227 2787 5323
			#1231 1229 1222 1232 1233 1220 1225 1219 1223 1226
			
			# Broken Iles colonial region coastline
			2799 1247 1248 1249 1246 1245 1243 1244 1273

			#North Haless
			6511 6512
		}
	}

	farmlands = {
		color = { 179 255 64 }

		type = plains
		sound_type = plains

		movement_cost = 1.10
		local_development_cost = -0.05
		supply_limit = 10
		allowed_num_of_buildings = 1
		nation_designer_cost_multiplier = 1.05
		
		terrain_override = {
			88 84 81 97 80 79 95 114 73 38 74 70 78 82 83 119 87 125 128 133 132 131 130 136 137 135 152 166 162 153 156 10 15 13 34 49 43 46 27 23 24 86 20 113
			143 103 147 165 149 12 207 347 177 176 175 181 171 158 44 159 142
			251 233 908 253 236 220 337 339 335 256 914 262 168 3 6 408 163
			
			85 108
			#Dameria
			39 50 281 285 284 910 330 275 297 280 916 274 333 269 267 917 109 286 293 298
			428 432 433 #Corvuria
			
			#Lencenor
			32 59 124
			
			#Dragon Coast
			172 144 145
			
			#Borders
			325 904 921 412 415 919 319 315 300 332 923 579 907
			
			#Esmaria
			311 310 265 901 909 902 279
			
			#Alenic Expanse
			218 221 340 243 219 245
			
			#Alenic Reach
			695 699 724 721 709 718
			
			#Escann
			779 777 774 781 756 757 765 792 835 834 837 839 829 830 821 825 827 826 856 876 885 818 817 816 810 819 800 798 797
			
			#Bulwar
			574 567 584 560 586 596 598 600 599 602 604
			607 612 625 628 631 634 635 639 640 641 642 643 608 613 615 616
			622 621 496 516 521 538 543
			536
			
			#Kheterata
			468 469 471 472 473 474 6088
			
			#Aelantir
			2785 2765 2761 2680 2708 2674 2669 2595 2598 2625 2621 2702 2651 2650 2619 2677 2542
			2484 2490 2508 2560 2565 2469 2465 2543 2500 2493 2501 2558 2556 2545 2541 2483
			2301 2296
			2557 1016 1999 1111 1015 1110 1037 1047 1939 1030 1035
			1202 1207 1203 1931 2854 1856
			
			#Ynn
			1833 1133 1134 1136 1827 1142 2859 1148 2810 1138 1825 1141 1820 1166 2839 2862 2809 1168 1169 1180 2840 2814 1189 1816 1758 1193 2843
			1155 1158 1151 1161 2807 2819 1162 
			
			#Eordand
			2041 2028 2022 2031 2008 2026 2036 2024 2050 2014 1875 1969 1974 1965 1963
			
			#Rahen
			4362 4399 4418 4406 4419 4392 4417 4404 4410 4405 4385 4416 4422 4381
			4408 4491 4492 4496 4497 4499 4501 4511 4488 4486 4484 4520 
			4504 4505 4506 4509 4478 4464 4474 4467 4463 4459 4458 4451 4476 4465 4518 4526 4525 4630
			
			#Haless
			4555 4561 4596 4597 4603 4594 4595 4582 4571 4578 4584 4585 4796 4788 4789 4787 4790
			4611 4613 4618 4621 4636 4632 4631 4629 4635 4634 4608 4559 4565 4797 4945 4703 4701 4962
			
			#Yanshen
			4870 4869 4873 4860 4930 4932 4864 4915 4914 4978 4913 4907 4872 4858 4813 4814 4818 4819
			4952 4845 4849 4850 4853 4854 4933 4861 4847 4884 4892 4867 4893 4949 4899 4825 5426 4951
			4981 4906 4912 4928 4979 4927 4916 4926 4920 4922 4925 4924 4816 4980 
			4555 4561 4596 4597 4599 4601 4603 4594 4595 4582 4571 4578 4584 4585 4796 4788 4789 4787 4790
			4611 4613 4618 4621 4636 4632 4631 4629 4635 4634 4608 4559 4565 4797 4945 4703 4701
			
			#Yanshen
			4870 4869 4873 4860 4930 4932 4864 4915 4914 4978 4913 4907 4872 4858 4813 4814 4818 4819
			4952 4845 4849 4850 4853 4854 4933 4861 4847 4884 4892 4867 4893 4949 4899 4825 5426 4951
			4981 4906 4912 4928 4979 4927 4916 4926 4920 4922 4925 4924 4816 4980 
			
			#Lake Cities
			5296 5291 5292 5278 5277 5273 5255 5261 5263 5264 5236 5241 5235 5227 5228 5225 
			5281 5297 5252 5306 5286 5294 5262
			
			#Odheongu
			5353 5354 5352 5351 5349 5348
		}		
	}
	
	forest = {
		color = { 31 116 16 }

		type = forest
		sound_type = forest
		
		movement_cost = 1.25
		defence = 1
		supply_limit = 4
		local_development_cost = 0.2
		nation_designer_cost_multiplier = 0.9
		
		terrain_override = { 
			987 4194 
			
			#Escann
			743 753
			
			#Alenic Frontier
			228
			
			#Alenic Reach
			722 712 713 714 717 735

			#Lake cities
			5272 5269 5268 5233 5300 5289 5288 5275 5267 5266 5254 5245 5230 5231

			#Nuzurbokh
			5197 5210 5221 5209

			#Moduk
			4990 

		}                                      
	}
	
	gladeway = {
		color = { 31 250 150 }

		type = forest
		sound_type = forest
		
		movement_cost = 1.25
		defence = 1
		supply_limit = 2
		local_development_cost = 1
		nation_designer_cost_multiplier = 0.9
		local_friendly_movement_speed = -0.30
		local_hostile_movement_speed = -0.35
		local_unrest = -25
		
		terrain_override = { 
			#Deepwoods
			3049 3066 3050 3071 3048 3054 3051 3052 3053 3057 3055 3056 3068 3059 3060 3061 3065 3063 3062 3064 3058 6258
			
			#Eordand
			6241 6242 6243 6244 6245
		}                                      
	}
	
	ancient_forest = {
		color = { 31 200 60 }

		type = forest
		sound_type = forest
		
		movement_cost = 1.25
		defence = 1
		supply_limit = 2
		local_development_cost = 0.25
		nation_designer_cost_multiplier = 0.9
		local_friendly_movement_speed = -0.05
		local_hostile_movement_speed = -0.15
		
		terrain_override = {
			#Deepwoods
			3004 3005 3006 3007 3008 3009 3010 3011 3012 3013  3014 3015 3016 3017 3018 3019 3021 3022 3023 3024
			3025 3026 3027 3028 3029 3030 3031 3032 3033 3034 3035 3036 3037 3038 3039 3040 3041 3042 3043 3044
			3045 3046 3047 3067
			
			#Eordand
			2033 2034 2039 2044 2005 2503 1994 2042 2027 2045
			6246 6247 6248 6251 6252 6253 6255 6256 6257 6249 6250 6254
			6554 6555 6556 6557
		}                                      
	}
	
	hills = {
		color = { 113 176 151 }

		type = hills
		sound_type = mountains

		movement_cost = 1.40
		defence = 1
		local_defensiveness = 0.1
		local_development_cost = 0.25
		nation_designer_cost_multiplier = 0.85
		supply_limit = 5
		
		terrain_override = {
			#Lencenor
			71 72 90 91 93 100 
			
			#Small Country
			160 161 
			
			#West Dameshead
			17 18 28 48 
			
			#Dragon Coast
			148 150 167 170 173 174 211 212 336 
			
			#Alenic Frontier
			217 346 
			
			#Damescrown
			254
			
			#Businor
			362 366 367 
			
			#East Dameshead
			2 37 276 277 838 
			
			#The Borders
			303 304 305 306 420 
			
			#Forlorn Vale
			261 354
			
			#Escann
			849 863
			
			#Dostanor
			424
			
			#Ourdia
			514 515
			
			#Serpent's Vale
			4164
			
			#Harpy Hills
			675 678 677
			
			#Bahar
			523 528 530 531
			
			#Aelantir 
			1094 1074 2091 2318 2460 
			2780 2782 2778 2777 2776 2770 2768
			2704 2647 2660 2661 2629 2631 2630 2618 2663 2636 2640 2697 2701 2711 2705 2676 2639
			2423 2486 2473 2474 2477 2475 2478 2481 2552 2551 2547 2542 2530 2546 2534 2525 2571 2572 2502 2491
			2374 2362 2177 2187 2197 
			2488 1144 1153 2844 1159 1176 1201 2850 1211 1773 1989 1769 1984 1772 1776
			1993 1125 1997 2010 2052 2054 2055 1209
			1178
			
			#Rahen
			4532 4437 4434 4368 4378 4444 4548 4446 4445 4450 4427
			
			#Yanshen
			4876 4878 4883 4886 4885 4881 4977 4911 4908 4910 4909 4879 4904 4827 4848 4843
			5409 4923
			
			#Demon Hills
			4973 4834 4832 4969 4831 5430 4830 4970 4642 4638 4829 4971 4815 4972 4828 4902 4901 4844 4812
			
			#Haless
			4754 4968 4752 4745 4955 4746 4744 4742 4736 4729 4694 4695 4698 4756 4699 4700 4958 4609
			4810 4820 4822 4808 4794 4793 4947 4795 4610 4614 4605 4604 4607 4821 4809 4806 4948 4616 4611 4623 4783 4786 4782 4935 4940 4833
			
			#North Haless
			5367 5346 5476 5339 5342 5375 5360 5357
			
			#Lake cities
			5292
		}
	}

	
	woods = {
		color = { 41 155 22 }

		type = forest
		sound_type = forest

		movement_cost = 1.10
		defence = 1
		local_development_cost = 0.15
		nation_designer_cost_multiplier = 0.9
		supply_limit = 6
		
		terrain_override = {
			#East Dameshead
			5 29 53 55 56 61 69 278 282 288 289 292 394 
			
			#West Dameshead
			19 22 30 31 40 41 42 57 
			
			#Lencenor
			77 94 99 102 110 116 117 118 120 127
			
			#Small Country
			76 134 139 206 210 348
			
			#Dragon Coast
			140 178 
			
			#Borders
			299 313 318 321 322 323 413 414 416 418 419 420 903 918 922
			
			#Businor
			362 363
			
			#Esmaria
			259 264 269 272 273 301 308 309 575 900 905 917
			
			#Forlorn Vale
			248 257 351 352 353 355 358 359 360 361 422
			
			#Escann
			728 758 766 783 785 788 790 794 795 802 805 806 807 811 812 814 815 828 840 842 843 853 866 867 872 873 874 878 879 880 881 882 883 891 892 893 894
			
			#Alenic Frontier
			244 247 
			
			#Dostanor
			429 434 435 437 439 440
			
			#Ourdia
			507 509 511
			
			#Daravan's Folly
			804
			
			#Bahar
			535 541 542
			
			#Greater Taychend
			2522 2526 2528 2532 2533 2535 2539 2544 2562 2570 2577 2589 2611 2612
			
			#Kheionai
			2644 2664 2665 2688 2689 2690 2692 2693 2694 2706 
			
			#Severed Coast
			2311 2315 2316 2319 2320 2323 2324 
			
			#North Ruined Isles
			925
			
			#Endralliande
			2126 2230 2828 
			
			#Bloodgroves
			1012 1024 1032 1038 1040 1041 1042 1045 1050 1114 1116 1119 1120 1121 1123 1132 1866 1933 1935 1936 1937 1943 1949 1953 1995 1996 2208 2450 2459 2476 2538 
			
			#Trollsbay
			1018 1022 1023 1024 1025 1026 1126 1127 1128 1129 1131 1934 1959 1961 1991 2609
			
			#Ynn
			1135 1137 1143 1154 1156 1157 1164 1167 1170 1174 1175 1177 1179 1194 1755 1756 1759 1826 1830 1832 1874 1877 2606 2615 2742 2781 2808 2812 2813 2817 2858 2860 2861 
			
			#Eordand
			1964 2002 2029 2035 2038 2040 2043 2051
			
			#Xianjie
			4512 4622 4624 4625 4939 
			
			#Yanshen
			4627 4637 4840 4841 4852 4855 4856 4874 4875 4888 4891 4903 4950 4985 
			
			#North Haless
			5340 5345 5347 5356 5362
		}
	}
	
	mountain = {
		color = { 105 24 4 }

		type = mountains
		sound_type = mountains

		movement_cost = 1.5
		defence = 2
		local_defensiveness = 0.25
		local_development_cost = 0.35
		nation_designer_cost_multiplier = 0.75
		supply_limit = 4
		
		terrain_override = {
			64 65 350 356 270 4 364
			441 438 436 5358 5363 6513 996
			566 5667
			
			#Aelantir
			2779 2786 
			2649 2648 2658 2628 2627 2666 2667 2646 2637 2638 2715 2714 2659 2657
			2400 2454 2507 2512
			2381 2379 2380 2360 2361 
			
			2838
			
			#Rahen
			4527
			
			#Lake Cities
			5299 5260 5279

			#Yanshen
			4976
		}
	}

	impassable_mountains = {
		color = { 128 128 128 }

		sound_type = desert

		movement_cost = 8.0
		defence = 6
		local_development_cost = 10		
	}

	grasslands = {
		color = { 130 255 47 }

		type = plains
		sound_type = plains

		movement_cost = 1.0
		supply_limit = 8
		allowed_num_of_buildings = 1
		nation_designer_cost_multiplier = 1
		
		terrain_override = {
			89
			
			#Haless
			4573 4574 4575 4771 4697 4765 4918 4740
			
			#Aelantir
			1004 2164
		}
	}

	jungle = {
		color = { 98 163 18 }

		type = jungle
		sound_type = jungle

		movement_cost = 1.5
		defence = 1
		local_development_cost = 0.35
		nation_designer_cost_multiplier = 0.8
		supply_limit = 5
		
		terrain_override = {
			#Ruined Isles
			1057 1073 1093 1092
			
			#Taychend
			2499 2554
			
			#Tor Nayyi
			2163
			
			#Haless
			4551 4612 4824
		}
	}	
	
	marsh = {
		color = { 13 189 130 }

		type = marsh
		sound_type = forest

		movement_cost = 1.3
		defence = 1
		local_development_cost = 0.25
		nation_designer_cost_multiplier = 0.85
		supply_limit = 5

		terrain_override = {
			#North Salahad
			463 466 503 464 462 467 546
		
			#Bulwar
			564 572 561 562 563
			
			#Aelantir 
			1873 1901 1033 1149 1165
			
			#Haless
			4599
		}
	}
	
	desert = {
		color = { 242 242 111 }

		type = desert
		sound_type = desert

		movement_cost = 1.05
		supply_limit = 4
		local_development_cost = 0.50
		nation_designer_cost_multiplier = 0.8
		
		terrain_override = { 
			#Aelantir
			2550
			
			#Rahen
			4482 4549
			
		}
	}
	
	coastal_desert = {
		color = { 255 211 110 }

		type = desert
		sound_type = desert

		movement_cost = 1.0
		local_development_cost = 0.35
		nation_designer_cost_multiplier = 0.9		
		supply_limit = 4

		terrain_override = {
			
			#Far Salahad
			2911 2912 2913 2923 2924 2925 4400 
			
			#Aelantir
			2124 2825
			
			#Salahad
			6093 6094 
			
			#Southeast Salahad
			5431 5435 5444 5445 
		}	
	}
	
	coastline = {
		color = { 49 175 191 }

		sound_type = sea

		movement_cost = 1.0
		local_development_cost = 0.25
		nation_designer_cost_multiplier = 0.85		
		supply_limit = 6 
		
		terrain_override = {
			
			#Western Cannor
			9 14 51 146 169 198 1001 
			
			#Gerudia
			953
			
			#Salahad
			406 5791 
			
			#Bulwar
			452 
			
			#Ruined Sea
			926 927 929 930 931 935 1059 1071 1077 1078 1079 1086 1105 1952 
			
			#North Haless
			5419 
			
			#Kheionai
			2739 2719 2718 2717 
			
			#Greater Taychend
			2561 2329
			
			#Effelai
			2241 2326
			
			#Eordand
			2061 1987
			
			#Torn Sea
			2156 2157 2161 2170 
			
			#North Aelantir
			2790 2793 2794 2796 
		}
	}	
	
	drylands = {
		color = { 232 172 102 }		

		type = plains
		sound_type = plains

		movement_cost = 1.00
		local_development_cost = 0.05
		nation_designer_cost_multiplier = 0.95
		supply_limit = 7
		allowed_num_of_buildings = 1

		terrain_override = {
			386 385 387 389 384 400 403 382 404
			
			#Bulwar
			534 537 539 540
			570 568 559 595 594 593 589 590 611 628 624 629 630 633 636 637 614 620 623
			
			#Aelantir
			2762 2759 2600 2599 2598 2597 2596 2601 2602 2603
			2453 2451 2442 2441 2440 2432 2439 2447 2388 2416 2385 1195 2456 2458 2457
			2580 2574 2575 2576 2566 2559 2510 2509 6559 2515 2536 2517 2518 2519 2549 2505 2504 2540 2555 2514 2529
			2297 2303 2304 2305 2302 2307 2308
			
			#Kheterata
			476 477 478 479 480 481 482 483 484 486 6089 6090 5676
			
			#Rahen
			4370 4394 4363 4412 4426 4430 4431 4432 4436 4414 4415 4413 4423 4407 4422 4421 4425 4472 4483 4471 4473 4401
			4469 4480 4468 4438 4443 4447 4448 4452 4455 4454 4457 4466 4515 4523 4529 4531 4535 4361 4530 4521 4373 
			
			#Yanshen
			4877 4894 4905 4895 
			5408 5412 5407 5411 5410 5413 5414 5416 5415 5417
			
			#Haless
			4705 4954 4739 4823 4747 4749 4966 4757 4750 4755 4944 5428 4921 4919
			
			#Southeast Salahad 
			5463 5462 5437 5434 5668
		}		
	}

	highlands = {
		color = { 176 129 21 }

		type = hills
		sound_type = mountains
		
		supply_limit = 6
		movement_cost = 1.40
		defence = 1
		local_defensiveness = 0.1
		local_development_cost = 0.2
		nation_designer_cost_multiplier = 0.9	

		terrain_override = {
			#Dragon Coast
			179 180 182 184 
			
			#Alenic Frontier
			196 197 200 
			
			#East Dameshead
			290 291 
			
			#The Borders
			316 317 409 913
			
			#Businor
			35 36 370 371 369 374 375 376 379 380 
			
			#Akan
			381 391 393 399 405 
			
			#Bahar
			518 520 522 529 545 
			
			#Harpy Hills
			551 552 554 555 618 619 654 658 663 664 665 670 671 672 673 674
			
			#Bulwar Proper
			573 577 580 597 617 679 686 691 692 693 
			
			#Aelantir
			2754 2766 2760 2755 2758 2756 2763 2764 2767 2733 2737 2772 2730 
			2709 2713 2673 2710 2700 2699 2678 2638 2624
			2386 2387 2382 2455 
			2468 2470 2472 2487 2568 2527 2494 2464 2466 2529 2511 2506 2553
			2345 2346 2347 2337 2250 2252 2295
			2056 2057 2060 2071
			
			#Haless
			5364 5365
		}
	}

	savannah = {
		color = { 248 199 23  }

		sound_type = plains

		supply_limit = 6
		movement_cost = 1.00
		local_development_cost = 0.15
		nation_designer_cost_multiplier = 0.95	
		
		terrain_override = {
			2093 1056 1221 1084
			
			#Aelantir 
			2092 2133 2130 2129 2127 2824 2822 2823 2097 2096 2827 2059 
			
			#2685 2410 1992 1019 1834 1835 
			
			#Salahad
			5478 5479 5480 5477 5532 5693 5488 5490 5470 5664 5492 5491 
			5493 5460 5493 5494 5458 5457 5449 5442 5443 5451 5456 5691 
			5495 5455 5450 5452 5454 5453 5473 5474 
		}		
	}
	
	steppe = {
		color = { 147 200 83  }

		type = plains
		sound_type = plains

		movement_cost = 1.00
		local_development_cost = 0.20
		nation_designer_cost_multiplier = 0.9	
		supply_limit = 6
		
		terrain_override = {
			#Aelantir
			1792 1847 1848 2842 1851 2729 1858 1859 1843 1844 1862 1842 1845 1881 1857 1855 1853
			
			#Forbiddens Plains
			5038 5039 5040 5050 5054 5051 5041 5042 5049 5044 5043 5045 5023 5016 5046 5061 5047 5058 5057 5056 5066 5060 5059 5063 5062 5061 5064 5065 
			5072 5074 5073 5092 5093 5094 5095 5096 5097 5099 5100 5101 5102 5103 5078 5132 5142 5081 5084 5089 5090 5075 5071 5070 5069 5068 5067
			5048 5079 5131 5139 5143 5148 5194 5193 5213 5214 5090 5091 5154 5152 5144 5128 5130 5133 5215 5216 5183 5177 5184
			
			#Southeast Salahad
			487 5464 5466 5467 5476 5471 5472 5468 5469 5459 5438 5440 5441 5436
			
			#North Haless
			5406 5377 5378 5338 5421 5376 5374 5373 5372 5343 5370 5401 4994 5325 5335 5336 5337
		}	
	}
	
	
	dwarven_hold = {
		color = { 255 198 0 }

		type = mountains
		sound_type = mountainss

		defence = 2
		movement_cost = 1.3
		supply_limit = 12		
		local_development_cost = -0.05
		local_defensiveness = 0.25
		allowed_num_of_buildings = 2
		nation_designer_cost_multiplier = 1.2		
		
		terrain_override = {		
			62 526 4149 4119 4128 4122 4208 2868 2931 4236 4056 4039 2973
			4093 4217 4218 4078 4247 4284 4350 4311 4313
		}
	}
	
	dwarven_hold_surface = {
		color = { 255 198 80 }

		type = mountains
		sound_type = mountainss

		defence = 2
		movement_cost = 1.3
		supply_limit = 12		
		local_development_cost = -0.05
		local_defensiveness = 0.25
		allowed_num_of_buildings = 2
		nation_designer_cost_multiplier = 1.2		
		
		terrain_override = {		
			4265 4266 4323 2863 4097 2963 4100 2942 4238 4124 2914 912 4020 4147 5424
		}
	}


	dwarven_road = {
		color = { 36 42 75 }

		type = plains
		sound_type = mountainss

		defence = 1
		movement_cost = 0.90
		supply_limit = 6		
		local_development_cost = 0.30
		local_defensiveness = 0.20
		nation_designer_cost_multiplier = 0.95		
		
		terrain_override = {		
			263 3003 3002 3001 3000 2999 2998 2997 2996 2994 2993 2992 2991 2990 2989 2988
			2864 2935 2865 2866 2867 2871 4043 2872 2933 2873 2874 2934 4065 4153 2875 2876 4104 2932 2877
			2937 2878 2879 4103 2880 2881 2882 2883 4029 2884 4038 4037 4036 2985 2984 2980 2981 2979 2970
			2968 4240 2962 2946 2945 2944 2943 2955 2954 2956 2957 2987 2885 4028 2886 2887 2888 2889
			2890 2891 4027 2892 2893 2894 2895 4231 4091 4111 4112 4113 4114 4090 2969 4082 2986 4121
			4120
			
			4242 4243 4244 4245 4246 4248 4249 4250 4251 4252 4253 4254 4255 4256 4257 4258 4259 4260 
			4261 4262 4263 4264 4297 4298 4300 4301 4302 4303 4304 4305 4306 4307 4308 4309 4310
			4314 4315 4316 4317 4318 4319 4320 4356 4359 4360 4312
			
		}
	}

	cavern = {
		color = { 0 0 0 }

		type = mountains
		sound_type = mountainss

		defence = 2
		movement_cost = 1.50
		supply_limit = 5	
		local_development_cost = 0.8
		local_defensiveness = 0.25
		nation_designer_cost_multiplier = 0.85		
		
		terrain_override = {				
			4211 4210 4209 4186 4185 4187 4188 4118 4130 4148 4144 4141 4064 4063
			4062 4150 4213 4212 4165 2897 2896 2898 2899 2870 2869 4163 4022 2995 4021 4023 4025 4024 4026
			4074 4096 4054 4044 4045 4046 4047 4048 4049 4055 4050 4051 4052 4053 4067 4066 4061 4060 4059 4058
			4057 4076 4075 4077 4105 4237 4068 4069 4070 4071 4072 4073 4153 4102 4040 4042 4041 2949 2951 2952 
			4035 2982 2978 2983 2977 2974 4099 2975 4098 2976 2972 2971 4126 2967 2964 2966 2965 4127 2961 2959 
			2958 2960 2947 2948 2950 4032 4034 4031 4033 2941 4030 2939 2940 4227 4228 4229 4215 4214 4080 4239 
			4084 4079 4081 4083 4216 4085 4230 4088 4110 4086 4087 4108 4109 4107 4106 4092 4095 4094
			4089 4220 4219 4221 4222 4223 4101 4203 4207 4206 4205 4204
			
			4277 4277 4279 4280 4281 4271 4267 4282 4269 4270 4272 4292 4274 4275 4268 4283 4285 4287
			4286 4288 4293 4294 4295 4296 4299 4278 4273 4290 4289 4291 4332 4344 4354 4345 4355 4342 4341 4340
			4339 4338 4337 4336 4335 4334 4351 4352 4348 4349 4324 4325 4326 4353 4327 4329 4330 4331
			
			#Dragonheights
			185 186 187 189 4643 4644 4645 4646 
			
			#Deepwoods
			3070 3069
			
		}
	}
	
	mushroom_forest_terrain = { 
		color = { 255 105 180 } 
 
		type = forest 
		sound_type = jungle 
		 
		movement_cost = 1.5 
		defence = 1 
		local_development_cost = 0.25 
		nation_designer_cost_multiplier = 0.85 
		supply_limit = 7	 
		 
		terrain_override = {				 
			2367 2368 2369 2370 2371 2372 2373 2374 
		} 
	} 

	city_terrain = {
		color = { 225 10 30 }

		type = forest
		sound_type = plains

		defence = 1
		movement_cost = 1.25
		supply_limit = 12	
		local_development_cost = -0.10
		local_defensiveness = 0.1
		allowed_num_of_buildings = 2
		nation_designer_cost_multiplier = 1.2		
		
		terrain_override = {				
			8 #Anbenncost
			52 #Port Munas
			63 66 #Viswall
			67 #Lorentaine
			101 #Wineport
			126 #Portnamm
			151 #Beepeck
			216 #Vertesk
			266 #Esmaraine
			328 #Silvelar
			327 #Cestaire
			234 #Damescrown
			294 #Magdalaire
			451 #Nathalaire
			565 #Brasan
			569 #Menibor
			587 #Bellacaire
			831 832 833 #Castonath
			141 165 723 
			33 26 15 329 331 365 911 249 915 112 601 271 164 417
			
			#Kheterata
			475 
			
			#Rahen
			4364 4367 4380 4435 4411 4391 4420 4409 4489 4493 4485 4470
			4500 4510 4460 4397
			
			#Haless
			4570 4580 4560 4600 4620 4633 4396 4751 4941 4963
			
			#Yanshen
			4871 4868 4859 4846 4842 4826
			
			#Aelantir
			2007 2728 2731 2732 2736 2738 2773 2745 2495 2496 2497 2520 1139 1171 1191 2037
			
			#Forbidden Lands
			5295 5293 5276 5253 5257 5256 5238 5237 5226 5304 5305 5287
		}
	}
}
	
##################################################################
### Graphical terrain
###		type	=	refers to the terrain defined above, "terrain category"'s 
### 	color 	= 	index in bitmap color table (see terrain.bmp)
###

terrain = {
	grasslands			= { type = grasslands		color = { 	0	 } }
	hills				= { type = hills			color = { 	1	 } }
	desert_mountain		= { type = mountain			color = { 	2	 } }
	desert				= { type = desert			color = { 	3	 } }

	plains				= { type = grasslands		color = { 	4	 } }
	terrain_5			= { type = grasslands		color = { 	5	 } }
	mountain			= { type = mountain			color = { 	6	 } }
	desert_mountain_low	= { type = desert			color = { 	7	 } }

	terrain_8			= { type = hills			color = { 	8	 } }
	marsh				= { type = marsh			color = { 	9	 } }
	terrain_10			= { type = farmlands		color = { 	10	 } }
	terrain_11			= { type = farmlands		color = { 	11	 } }

	forest_12			= { type = forest			color = { 	12	 } }
	forest_13			= { type = forest			color = { 	13	 } }
	forest_14			= { type = forest			color = { 	14	 } }
	ocean				= { type = ocean			color = { 	15	 } }

	snow				= { type = mountain 		color = { 	16	 } } # (SPECIAL CASE) Used to identify permanent snow
	inland_ocean_17 	= { type = inland_ocean		color = {	17	 } }

	coastal_desert_18	= { type = coastal_desert	color = { 	19	 } }
	coastline			= { type = coastline		color = { 	35	 } }
	
	savannah			= { type = savannah 		color = {	20	 } }
	drylands			= { type = drylands			color = {	22	 } }
	highlands			= { type = highlands		color = {	23	 } }
	dry_highlands		= { type = highlands		color = {	24	 } }
	
	woods				= { type = woods			color = { 	255	 } }
	jungle				= { type = jungle			color = { 	254	 } }
	
	
	terrain_21			= { type = farmlands		color = { 	21	 } }	
}

##################################################################
### Tree terrain
###		terrain	=	refers to the terrain tag defined above
### 	color 	= 	index in bitmap color table (see tree.bmp)
###

tree = {
	forest				= { terrain = forest 			color = { 	3 4 6 7 19 20	} }
	woods				= { terrain = woods 			color = { 	2 5 8 18	} }
	jungle				= { terrain = jungle 			color = { 	13 14 15	} }
	palms				= { terrain = desert 			color = { 	12	} }
	savana				= { terrain = grasslands 		color = { 	27 28 29 30	} }
}