estate_chumijemoya =
{
	icon = 18

	trigger = {
		tag = Y01
		NOT = {
			has_country_flag = oni_chumijemoya_lost
		}
	}

	# These scale with loyalty & power
	country_modifier_happy = {
		global_institution_spread = 0.5
		global_spy_defence = 0.2
		vassal_income = 0.1
	}
	country_modifier_neutral = {
		global_institution_spread = 0.5
	}	
	country_modifier_angry = {
		global_institution_spread = -0.25
		global_spy_defence = -0.2
		global_unrest = 2
	}
	land_ownership_modifier = {
		chumijemoya_loyalty_modifier = 0.2
	}
	
	province_independence_weight = {
		factor = 1
		modifier = {
			factor = 0.1
			NOT = { development = 5 }
		}
		modifier = {
			factor = 0.5
			OR = {
				NOT = { development = 10 }
				NOT = { province_trade_power = 5 }
			}
		}
		modifier = {
			factor = 2
			development = 20
		}
		modifier = {
			factor = 0.5
			is_territorial_core = owner
		}
		modifier = {
			factor = 1.5
			province_trade_power = 10
		}
		modifier = {
			factor = 1.5
			province_trade_power = 20
		}
		modifier = {
			factor = 1.5
			has_province_modifier = thankful_guilds
		}
		modifier = {
			factor = 10
			OR = {
				has_terrain = city_terrain 
				has_terrain = dwarven_hold
				has_terrain = dwarven_hold_surface
			}
		}
	}
	
	color = { 35 35 150 }

	base_influence = 10
	influence_modifier = {
		desc = chumijemoya_heir
		trigger = {
			has_country_flag = oni_heir_chumijemoya
		}
		influence = 5
	}
	influence_modifier = {
		desc = chumijemoya_ruler
		trigger = {
			has_country_flag = oni_ruler_chumijemoya
		}
		influence = 10
	}
	influence_modifier = {
		desc = accepted_cursed
		trigger = {
			has_country_flag = accepted_khelorvalshi
		}
		influence = -5
	}

	loyalty_modifier = {
		desc = chumijemoya_heir
		trigger = {
			has_country_flag = oni_heir_chumijemoya
		}
		loyalty = 5
	}
	loyalty_modifier = {
		desc = chumijemoya_ruler
		trigger = {
			has_country_flag = oni_ruler_chumijemoya
		}
		loyalty = 5
	}
	loyalty_modifier = {
		desc = accepted_cursed
		trigger = {
			has_country_flag = accepted_khelorvalshi
		}
		loyalty = -5
	}


	privileges = {
		estate_chumijemoya_monopoly_of_incense
		estate_chumijemoya_secret_police #this is just a code name, don't @ me about it not fitting the theme
		estate_chumijemoya_advisors
		estate_chumijemoya_spynetworks
	}

	agendas = {
		estate_chumijemoya_develop_x
		#estate_mages_spy_on_rival
	}
	influence_from_dev_modifier = 1.0
}
